Данные полученные на безвинно замученных тварях божъих крысах пасюках Wistar поенных денно и нощно мертвой водою 1% р-ром этиленгликоля
…
Описание данных

library(readxl)
RAT_SKD <- read_excel("Data/RAT_SKD.xlsx")
RAT_SKD

## # A tibble: 1,011 x 6
##    Number Group       Day Par               Mes   Cri
##     <dbl> <chr>     <dbl> <chr>           <dbl> <dbl>
##  1      1 Патогенез     0 Масса          311        0
##  2      1 Патогенез     0 БХ_К_Креатинин  94.4      0
##  3      1 Патогенез     0 БХ_К_Мочевина    6.39     0
##  4      1 Патогенез     0 БХ_К_Билирубин   8.66     0
##  5      1 Патогенез     0 БХ_К_Na        148.       0
##  6      1 Патогенез     0 БХ_К_K           5.2      0
##  7      1 Патогенез     0 ОКА_М_pH         7        0
##  8      1 Патогенез     0 ОКА_М_УдВес      1.01     0
##  9      1 Патогенез     0 БХ_М_Креатинин 854.       0
## 10      1 Патогенез     0 БХ_М_Мочевина    4.61     0
## # ... with 1,001 more rows
…
Убираем то, что точно не сыграло, скорее всего просто “завалили” анализ

RAT_SKD2 <- RAT_SKD %>% filter(!Par %in% c("ОКА_М_УдВес", "ОКА_М_Белок", "БХ_К_Na"))
RAT_SKD2

## # A tibble: 900 x 6
##    Number Group       Day Par               Mes   Cri
##     <dbl> <chr>     <dbl> <chr>           <dbl> <dbl>
##  1      1 Патогенез     0 Масса          311        0
##  2      1 Патогенез     0 БХ_К_Креатинин  94.4      0
##  3      1 Патогенез     0 БХ_К_Мочевина    6.39     0
##  4      1 Патогенез     0 БХ_К_Билирубин   8.66     0
##  5      1 Патогенез     0 БХ_К_K           5.2      0
##  6      1 Патогенез     0 ОКА_М_pH         7        0
##  7      1 Патогенез     0 БХ_М_Креатинин 854.       0
##  8      1 Патогенез     0 БХ_М_Мочевина    4.61     0
##  9      1 Патогенез     0 БХ_М_Билирубин  18.7      0
## 10      1 Патогенез     0 БХ_М_Na         27.1      0
## # ... with 890 more rows
…
Линейная модель данных

Задача: посмотреть какие из параметров показали динамику в зависимости от количесвта кристаллов обнаруженных в моче.

Проверим зависимость всех измеряемых параметров от суток эксперимента и количесвта кристаллов

RAT_SKD2 %>% filter(Cri %in% c(0, 1000)) %>% 
  filter(!(Group=="Патогенез"&Cri==0)) %>%
  group_by(Par, Group) %>% do(tidy(t.test(.$Mes)))

## # A tibble: 32 x 10
## # Groups:   Par, Group [32]
##    Par   Group estimate statistic  p.value parameter conf.low conf.high method
##    <chr> <chr>    <dbl>     <dbl>    <dbl>     <dbl>    <dbl>     <dbl> <chr> 
##  1 Conc  Конт~    12.0       8.63 4.18e- 9        26     9.10     14.8  One S~
##  2 Conc  Пато~     3.42     10.3  2.60e- 7        12     2.69      4.14 One S~
##  3 Mean  Конт~   166.       45.6  2.45e-26        26   159.      174.   One S~
##  4 Mean  Пато~   182.       26.3  5.51e-12        12   167.      197.   One S~
##  5 Mode  Конт~   137.       29.7  1.36e-21        26   128.      147.   One S~
##  6 Mode  Пато~   122.       16.8  1.08e- 9        12   106.      138.   One S~
##  7 Rela~ Конт~     1.20     24.5  6.04e-17        21     1.10      1.30 One S~
##  8 Rela~ Пато~     1.53     17.9  4.21e- 7         7     1.33      1.73 One S~
##  9 БХ_К~ Конт~     3.67     11.6  1.06e- 6         9     2.95      4.39 One S~
## 10 БХ_К~ Пато~     5.13      9.50 2.18e- 4         5     3.74      6.52 One S~
## # ... with 22 more rows, and 1 more variable: alternative <chr>
…
